<svg width="42" height="42" viewBox="0 0 42 42" fill="none" xmlns="http://www.w3.org/2000/svg">
<circle cx="21" cy="21" r="20" fill="#333435" fill-opacity="0.9"/>
<circle cx="21" cy="21" r="20.5" stroke="white" stroke-opacity="0.4"/>
<path d="M23.0508 26.0762L17.9741 20.9995L23.0508 15.9228" stroke="white" stroke-width="2"/>
</svg>
