<svg width="14" height="11" viewBox="0 0 14 11" fill="none" xmlns="http://www.w3.org/2000/svg">
<path d="M7.5 0.550781L12.4497 5.50053L7.5 10.4503" stroke="#666666" stroke-width="1.5"/>
<path d="M0.5 5.50049H12.5796" stroke="#666666" stroke-width="1.5"/>
</svg>
